{
  "parent": "minecraft:adventure/root",
  "display": {
    "icon": {
      "item": "conjurer_illager:conjurer_hat"
    },
    "title": {
      "translate": "advancements.conjurer_illager.find_theatre"
    },
    "description": {
      "translate": "advancements.conjurer_illager.find_theatre.desc"
    },
    "frame": "task",
    "show_toast": true,
    "announce_to_chat": true,
    "hidden": false
  },
  "criteria": {
    "in_theater": {
      "conditions": {
        "player": [
          {
            "condition": "minecraft:entity_properties",
            "entity": "this",
            "predicate": {
              "location": {
                "structure": "conjurer_illager:theatre"
              }
            }
          }
        ]
      },
      "trigger": "minecraft:location"
    }
  },
  "requirements": [
    [
      "in_theater"
    ]
  ]
}